<?xml version="1.0" encoding="UTF-8" standalone="no"?>
<!-- Created with Inkscape (http://www.inkscape.org/) -->

<svg
   width="100mm"
   height="100mm"
   viewBox="0 0 100 100"
   version="1.1"
   id="svg1"
   xml:space="preserve"
   inkscape:version="1.3.2 (091e20ef0f, 2023-11-25, custom)"
   sodipodi:docname="mouse-rook-black.svg"
   xmlns:inkscape="http://www.inkscape.org/namespaces/inkscape"
   xmlns:sodipodi="http://sodipodi.sourceforge.net/DTD/sodipodi-0.dtd"
   xmlns="http://www.w3.org/2000/svg"
   xmlns:svg="http://www.w3.org/2000/svg"><sodipodi:namedview
     id="namedview1"
     pagecolor="#ffffff"
     bordercolor="#000000"
     borderopacity="0.25"
     inkscape:showpageshadow="2"
     inkscape:pageopacity="0.0"
     inkscape:pagecheckerboard="0"
     inkscape:deskcolor="#d1d1d1"
     inkscape:document-units="mm"
     inkscape:zoom="1.3895453"
     inkscape:cx="197.54664"
     inkscape:cy="125.58065"
     inkscape:window-width="3840"
     inkscape:window-height="2065"
     inkscape:window-x="0"
     inkscape:window-y="38"
     inkscape:window-maximized="0"
     inkscape:current-layer="layer1" /><defs
     id="defs1" /><g
     inkscape:label="Layer 1"
     inkscape:groupmode="layer"
     id="layer1"><g
       id="g6"
       transform="matrix(0.99648845,0,0,1.0000531,0.01969532,9.8321372)"
       style="stroke-width:2.12033658;stroke-dasharray:none;fill:#000000;fill-opacity:1;stroke:#ffffff;stroke-opacity:1"><g
         id="g19"
         style="display:inline;stroke:#ffffff;stroke-width:2.39572767;stroke-miterlimit:4;stroke-dasharray:none;stroke-opacity:1;fill:#000000;fill-opacity:1"
         transform="matrix(1.1318762,0,0,0.69204731,-9.138707,-1.9890193)"
         inkscape:label="ear.left"><path
           id="path11"
           style="display:inline;fill:#000000;fill-rule:evenodd;stroke:#ffffff;stroke-width:2.39572767;stroke-linecap:round;stroke-linejoin:round;stroke-miterlimit:4;stroke-dasharray:none;stroke-opacity:1;stop-color:#000000;fill-opacity:1"
           inkscape:label="mouse"
           d="M 30.008105,33.862139 C 26.851693,35.0837 21.47042,33.381968 21.467508,27.374552 21.615563,20.526354 23.088869,14.077118 27.430173,13.933721 v 0 c 7.269574,0.938903 7.174882,13.894365 5.070471,17.436042"
           sodipodi:nodetypes="ccccc" /></g><g
         id="g19-3"
         style="display:inline;stroke:#ffffff;stroke-width:2.39572767;stroke-miterlimit:4;stroke-dasharray:none;stroke-opacity:1;fill:#000000;fill-opacity:1"
         transform="matrix(-1.1318762,0,0,0.69204731,109.45157,-1.9890193)"
         inkscape:label="ear.left"><path
           id="path11-6"
           style="display:inline;fill:#000000;fill-rule:evenodd;stroke:#ffffff;stroke-width:2.39572767;stroke-linecap:round;stroke-linejoin:round;stroke-miterlimit:4;stroke-dasharray:none;stroke-opacity:1;stop-color:#000000;fill-opacity:1"
           inkscape:label="mouse"
           d="M 30.008105,33.862139 C 26.851693,35.0837 21.47042,33.381968 21.467508,27.374552 21.615563,20.526354 23.088869,14.077118 27.430173,13.933721 v 0 c 7.269574,0.938903 7.174882,13.894365 5.070471,17.436042"
           sodipodi:nodetypes="ccccc" /></g></g><path
       id="rect5-2-0"
       style="display:inline;fill:#000000;fill-rule:evenodd;stroke:#ffffff;stroke-width:2.11666667;stroke-linecap:round;stroke-linejoin:round;stroke-dasharray:none;fill-opacity:1;stroke-opacity:1"
       inkscape:label="base.bottom"
       d="m 24.676761,91.482405 -3.111718,-0.03424 v 7.493599 h 56.869914 v -7.493599 l -53.758196,0.03424"
       sodipodi:nodetypes="cccccc" /><path
       id="rect1"
       style="fill:#000000;fill-opacity:1;fill-rule:evenodd;stroke:#ffffff;stroke-width:2.11667;stroke-linecap:round;stroke-linejoin:round;stroke-dasharray:none;stroke-opacity:1"
       d="m 27.986556,81.774666 h 44.026888 m -44.027114,4.706943 2.26e-4,-4.580886 V 45.576306 h 44.026888 l -1e-6,36.306417 -2.29e-4,6.655825"
       sodipodi:nodetypes="cccccccc" /><path
       id="path1"
       style="fill:#000000;fill-rule:evenodd;stroke:#ffffff;stroke-width:2.11666667;stroke-linecap:round;stroke-linejoin:round;stroke-dasharray:none;fill-opacity:1;stroke-opacity:1"
       d="M 78.460237,37.460303 A 28.460316,12.860698 0 0 0 50.047402,24.599623 28.460316,12.860698 0 0 0 21.539763,37.417392 Z" /><g
       id="g3"
       style="display:inline;fill:#000000;fill-opacity:1;stroke-width:2.12034;stroke-dasharray:none;stroke:#ffffff;stroke-opacity:1"
       transform="matrix(0.99648845,0,0,1.0000531,-6.5324971,-29.711919)"><path
         style="fill:#000000;fill-opacity:1;fill-rule:evenodd;stroke:#ffffff;stroke-width:2.12034;stroke-linecap:round;stroke-linejoin:round;stroke-dasharray:none;stroke-opacity:1"
         d="m 28.344494,67.299057 6.296202,7.98517 v 0 H 79.16935 l 6.2962,-7.942262"
         id="path2"
         sodipodi:nodetypes="ccccc" /></g><g
       id="g20"
       style="stroke-width:2.11666667;stroke-dasharray:none;fill:#000000;fill-opacity:1;stroke:#ffffff;stroke-opacity:1" /><g
       id="g14"
       transform="translate(-0.00125)"
       style="stroke-width:2.11666667;stroke-dasharray:none;fill:#000000;fill-opacity:1;stroke:#ffffff;stroke-opacity:1"><path
         style="fill:#000000;fill-rule:evenodd;stroke:#ffffff;stroke-width:2.11666667;stroke-linecap:round;stroke-linejoin:round;stroke-dasharray:none;fill-opacity:1;stroke-opacity:1"
         d="m 68.163447,72.004669 v 9.769997"
         id="path5-6-0" /><path
         style="fill:#000000;fill-rule:evenodd;stroke:#ffffff;stroke-width:2.11666667;stroke-linecap:round;stroke-linejoin:round;stroke-dasharray:none;fill-opacity:1;stroke-opacity:1"
         d="m 31.839053,72.004669 v 9.769997"
         id="path5-3-2-9" /><path
         style="fill:#000000;fill-rule:evenodd;stroke:#ffffff;stroke-width:2.11666667;stroke-linecap:round;stroke-linejoin:round;stroke-dasharray:none;fill-opacity:1;stroke-opacity:1"
         d="m 50.00125,72.004669 v 9.769997"
         id="path5-1" /></g><g
       id="g13"
       transform="matrix(1.0013037,0,0,0.97647863,-0.08365906,1.6494924)"
       style="stroke-width:2.14061315;stroke-dasharray:none;fill:#000000;fill-opacity:1;stroke:#ffffff;stroke-opacity:1"><path
         style="fill:#000000;fill-rule:evenodd;stroke:#ffffff;stroke-width:2.14061315;stroke-linecap:round;stroke-linejoin:round;stroke-dasharray:none;fill-opacity:1;stroke-opacity:1"
         d="M 40.93735,59.854053 V 69.62405"
         id="path5-3-2-9-5" /><path
         style="fill:#000000;fill-rule:evenodd;stroke:#ffffff;stroke-width:2.14061315;stroke-linecap:round;stroke-linejoin:round;stroke-dasharray:none;fill-opacity:1;stroke-opacity:1"
         d="M 59.099547,59.854053 V 69.62405"
         id="path5-1-5" /></g><g
       id="g15"
       transform="translate(-0.00125)"
       style="stroke-width:2.11666667;stroke-dasharray:none;fill:#000000;fill-opacity:1;stroke:#ffffff;stroke-opacity:1"><path
         style="fill:#000000;fill-rule:evenodd;stroke:#ffffff;stroke-width:2.11666667;stroke-linecap:round;stroke-linejoin:round;stroke-dasharray:none;fill-opacity:1;stroke-opacity:1"
         d="m 68.163447,47.939494 v 9.769997"
         id="path5-6-0-6" /><path
         style="fill:#000000;fill-rule:evenodd;stroke:#ffffff;stroke-width:2.11666667;stroke-linecap:round;stroke-linejoin:round;stroke-dasharray:none;fill-opacity:1;stroke-opacity:1"
         d="m 31.839053,47.939494 v 9.769997"
         id="path5-3-2-9-3" /><path
         style="fill:#000000;fill-rule:evenodd;stroke:#ffffff;stroke-width:2.11666667;stroke-linecap:round;stroke-linejoin:round;stroke-dasharray:none;fill-opacity:1;stroke-opacity:1"
         d="m 50.00125,47.939494 v 9.769997"
         id="path5-1-2" /></g><path
       style="fill:#000000;fill-rule:evenodd;stroke:#ffffff;stroke-width:2.11666667;stroke-linecap:round;stroke-linejoin:round;stroke-dasharray:none;fill-opacity:1;stroke-opacity:1"
       d="M 28.443802,57.726918 H 71.556198"
       id="path6" /><path
       style="fill:#000000;fill-rule:evenodd;stroke:#ffffff;stroke-width:2.11666667;stroke-linecap:round;stroke-linejoin:round;stroke-dasharray:none;fill-opacity:1;stroke-opacity:1"
       d="M 28.443802,69.62405 H 71.556198"
       id="path7" /><path
       id="path22"
       style="fill:#000000;fill-opacity:1;fill-rule:evenodd;stroke:#ffffff;stroke-width:2.11667;stroke-linecap:round;stroke-linejoin:round;stroke-opacity:1"
       d="m 27.98633,86.481609 c 0,2.745376 -2.21359,4.977249 -4.958873,4.999831 l 53.94463,-0.03231 c -2.745283,-0.02258 -4.958873,-2.254455 -4.958873,-4.999831"
       sodipodi:nodetypes="cccc" /></g></svg>
