<?xml version="1.0" encoding="UTF-8" standalone="no"?>
<!-- Created with Inkscape (http://www.inkscape.org/) -->

<svg
   width="100mm"
   height="100mm"
   viewBox="0 0 100 100"
   version="1.1"
   id="svg1"
   xml:space="preserve"
   inkscape:version="1.3.2 (091e20ef0f, 2023-11-25)"
   sodipodi:docname="queen.svg"
   xmlns:inkscape="http://www.inkscape.org/namespaces/inkscape"
   xmlns:sodipodi="http://sodipodi.sourceforge.net/DTD/sodipodi-0.dtd"
   xmlns="http://www.w3.org/2000/svg"
   xmlns:svg="http://www.w3.org/2000/svg"><sodipodi:namedview
     id="namedview1"
     pagecolor="#ffffff"
     bordercolor="#000000"
     borderopacity="0.25"
     inkscape:showpageshadow="2"
     inkscape:pageopacity="0.0"
     inkscape:pagecheckerboard="0"
     inkscape:deskcolor="#d1d1d1"
     inkscape:document-units="mm"
     inkscape:zoom="1.4493514"
     inkscape:cx="78.310893"
     inkscape:cy="99.354789"
     inkscape:window-width="3836"
     inkscape:window-height="1057"
     inkscape:window-x="0"
     inkscape:window-y="0"
     inkscape:window-maximized="0"
     inkscape:current-layer="layer1"
     showgrid="false" /><defs
     id="defs1"><linearGradient
       id="swatch21"
       inkscape:swatch="solid"><stop
         style="stop-color:#000000;stop-opacity:1;"
         offset="0"
         id="stop21" /></linearGradient></defs><g
     inkscape:label="Layer 1"
     inkscape:groupmode="layer"
     id="layer1"><path
       id="rect5-2-0"
       style="display:inline;fill:#ffffff;fill-rule:evenodd;stroke:#000000;stroke-width:2.117;stroke-linecap:round;stroke-linejoin:round;stroke-dasharray:none;fill-opacity:1"
       inkscape:label="base.bottom"
       d="m 24.676763,91.482141 -3.111718,-0.03424 V 98.9415 h 56.86991 v -7.493599 l -53.758191,0.03424"
       sodipodi:nodetypes="cccccc" /><g
       id="g8"
       transform="matrix(-1,0,0,1,40.983242,-12.498026)"
       style="fill:#ffffff;fill-opacity:1"><path
         id="rect5-2-0-7"
         style="display:inline;fill:#ffffff;fill-rule:evenodd;stroke:#000000;stroke-width:2.117;stroke-linecap:round;stroke-linejoin:round;stroke-dasharray:none;fill-opacity:1"
         inkscape:label="base.bottom"
         d="m 10.686538,92.537521 2.421142,-0.03525 v 7.715749 h -44.248875 v -7.715749 l 41.827733,0.03525"
         sodipodi:nodetypes="cccccc" /><g
         id="g7"
         transform="translate(-6.9777299,8.768994)"
         style="fill:#ffffff;fill-opacity:1"><path
           style="fill:#ffffff;fill-rule:evenodd;stroke:#000000;stroke-width:2.117;stroke-linecap:round;stroke-linejoin:round;stroke-dasharray:none;fill-opacity:1"
           d="m 21.626339,91.459977 h -47.678027 c -0.731655,0.108366 -1.770142,0.739938 -3.213729,3.734076 h 54.105485 c -1.443587,-2.994138 -2.482074,-3.62571 -3.213729,-3.734076"
           id="path5-2-6-6-9"
           sodipodi:nodetypes="ccccc" /></g></g><path
       style="fill:#ffffff;fill-rule:evenodd;stroke:#000000;stroke-width:2.117;stroke-linecap:round;stroke-linejoin:round;stroke-dasharray:none;fill-opacity:1"
       d="M 27.875561,49.557651 H 72.124438"
       id="path9-5"
       sodipodi:nodetypes="cc" /><path
       style="fill:#ffffff;fill-rule:evenodd;stroke:#000000;stroke-width:2.117;stroke-dasharray:none;stroke-opacity:1;fill-opacity:1"
       d="m 24.586325,41.147699 h 50.82735"
       id="path1" /><g
       id="g19-3"
       style="display:inline;stroke:#000000;stroke-width:1.99644;stroke-miterlimit:4;stroke-dasharray:none;stroke-opacity:1;fill:#ffffff;fill-opacity:1"
       transform="matrix(-1.1279016,0,0,0.69208406,96.853172,17.329067)"
       inkscape:label="ear.left" /><circle
       style="fill:#ffffff;stroke:#000000;stroke-width:1.13036;stroke-dasharray:none;fill-opacity:1"
       id="path5"
       cx="50"
       cy="10.720323"
       r="1.6018372" /><g
       id="g6"
       transform="translate(0.4889549,0.75408634)"
       style="fill:#ffffff;fill-opacity:1"><g
         id="g19-2"
         style="display:inline;stroke:#000000;stroke-width:1.99657;stroke-miterlimit:4;stroke-dasharray:none;stroke-opacity:1;fill:#ffffff;fill-opacity:1"
         transform="matrix(-1.071085,0,0,0.62857793,97.822497,-5.2241803)"
         inkscape:label="ear.left"><path
           id="path11-7"
           style="display:inline;fill:#ffffff;fill-rule:evenodd;stroke:#000000;stroke-width:1.99657;stroke-linecap:round;stroke-linejoin:round;stroke-miterlimit:4;stroke-dasharray:none;stroke-opacity:1;stop-color:#000000;fill-opacity:1"
           inkscape:label="mouse"
           d="m 30.205473,35.804972 c -3.156412,1.221561 -9.091328,-3.323947 -9.09424,-9.331363 0.148055,-6.848198 1.621361,-13.297434 5.962665,-13.440831 v 0 c 7.269574,0.938903 6.885465,16.951932 4.781054,20.493609"
           sodipodi:nodetypes="ccccc" /></g><g
         id="g19-2-0"
         style="display:inline;stroke:#000000;stroke-width:1.99657;stroke-miterlimit:4;stroke-dasharray:none;stroke-opacity:1;fill:#ffffff;fill-opacity:1"
         transform="matrix(1.071085,0,0,0.62857793,1.1995932,-5.1711872)"
         inkscape:label="ear.left"><path
           id="path11-7-9"
           style="display:inline;fill:#ffffff;fill-rule:evenodd;stroke:#000000;stroke-width:1.99657;stroke-linecap:round;stroke-linejoin:round;stroke-miterlimit:4;stroke-dasharray:none;stroke-opacity:1;stop-color:#000000;fill-opacity:1"
           inkscape:label="mouse"
           d="m 30.205473,35.804972 c -3.156412,1.221561 -9.091328,-3.323947 -9.09424,-9.331363 0.148055,-6.848198 1.621361,-13.297434 5.962665,-13.440831 v 0 c 7.269574,0.938903 6.885465,16.951932 4.781054,20.493609"
           sodipodi:nodetypes="ccccc" /></g></g><g
       id="g1"
       transform="translate(53.401089,-24.696031)"
       style="fill:#ffffff;fill-opacity:1" /><g
       id="g20"
       transform="translate(-54.012871,-2.044075)"
       style="fill:#ffffff;fill-opacity:1"><path
         style="fill:#ffffff;fill-rule:evenodd;stroke:#000000;stroke-width:2.00347;stroke-linecap:round;stroke-linejoin:round;stroke-dasharray:none;fill-opacity:1"
         d="m 120.90413,51.674651 v 22.923754 c 0,0 -0.14877,5.381883 5.23318,7.449915 H 81.888433 c 5.381946,-2.068032 5.233182,-7.449915 5.233182,-7.449915 V 51.565402 Z"
         id="path8-9"
         sodipodi:nodetypes="ccccccc" /></g><path
       style="fill:#ffffff;stroke:#000000;stroke-width:2.117;stroke-dasharray:none;fill-opacity:1"
       d="M 32.632521,41.147699 C 31.885947,24.99269 20.226798,18.302124 20.226798,18.302124 l 16.334264,6.580387 6.721041,-6.580387 6.721044,6.580387 6.721042,-6.580387 6.721042,6.580387 16.334264,-6.580387 c 0,0 -11.571757,6.53559 -12.405726,22.845575 z"
       id="path11"
       sodipodi:nodetypes="cccccccccc" /><g
       id="g36"
       transform="translate(-71.21364,0.06161709)"
       style="fill:#ffffff;fill-opacity:1"><path
         style="fill:#ffffff;stroke:#000000;stroke-width:2.117;stroke-dasharray:none;stroke-opacity:1;fill-opacity:1"
         d="m 96.034325,41.086081 c 0,0 6.854085,1.223908 6.749005,4.204977 0.008,2.883325 -3.694128,4.204976 -3.694128,4.204976 h 44.248878 c 0,0 -3.70224,-1.321651 -3.69414,-4.204976 -0.10507,-2.981069 6.74901,-4.204977 6.74901,-4.204977 z"
         id="path20-3"
         sodipodi:nodetypes="ccccccc" /></g><path
       id="path24"
       style="fill:#ffffff;stroke:#000000;stroke-width:2.117;fill-opacity:1"
       d="M 67.974616,23.057813 C 67.942605,17.66053 59.734274,12.825992 49.958133,12.838772 40.181992,12.851547 32.126052,17.704276 32.140322,23.101581 l 4.42074,1.78093 6.721041,-6.580387 6.721044,6.580387 6.721042,-6.580387 6.721042,6.580387 z"
       sodipodi:nodetypes="csc" /><path
       style="fill:#ffffff;fill-rule:nonzero;stroke:#000000;stroke-width:1.0585;stroke-dasharray:none;stroke-dashoffset:0;stroke-opacity:1;fill-opacity:1"
       d="M 31.569695,45.352675 H 68.430304"
       id="path25" /><g
       id="g2"
       transform="translate(-0.00403194)"
       style="fill:#000000;fill-opacity:1"><path
         style="fill:#000000;stroke:#000000;stroke-width:1;stroke-linecap:square;stroke-opacity:1;fill-opacity:1"
         d="m 44.629997,27.549684 c 0,0 -0.17859,4.76701 2.075411,5.39692 -0.227173,4.844806 -1.609822,4.685165 -1.609822,4.685165 0,0 -1.568709,0.140973 -1.613784,-4.868483 -0.187229,-4.945308 0.847243,-5.21716 1.148195,-5.213602 z"
         id="path2"
         sodipodi:nodetypes="ccccc" /><path
         style="fill:#000000;stroke:#000000;stroke-width:1;stroke-linecap:square;stroke-opacity:1;fill-opacity:1"
         d="m 54.456055,27.549684 c 0,0 -0.17859,4.76701 2.075411,5.39692 -0.227173,4.844806 -1.609822,4.685165 -1.609822,4.685165 0,0 -1.568709,0.140973 -1.613784,-4.868483 -0.187229,-4.945308 0.847243,-5.21716 1.148195,-5.213602 z"
         id="path2-2"
         sodipodi:nodetypes="ccccc" /></g></g></svg>
