<?xml version="1.0" encoding="UTF-8" standalone="no"?>
<!-- Created with Inkscape (http://www.inkscape.org/) -->

<svg
   width="100mm"
   height="100mm"
   viewBox="0 0 100 100"
   version="1.1"
   id="svg1"
   xml:space="preserve"
   inkscape:version="1.3.2 (091e20ef0f, 2023-11-25, custom)"
   sodipodi:docname="fox-rook-white.svg"
   xmlns:inkscape="http://www.inkscape.org/namespaces/inkscape"
   xmlns:sodipodi="http://sodipodi.sourceforge.net/DTD/sodipodi-0.dtd"
   xmlns="http://www.w3.org/2000/svg"
   xmlns:svg="http://www.w3.org/2000/svg"><sodipodi:namedview
     id="namedview1"
     pagecolor="#ffffff"
     bordercolor="#000000"
     borderopacity="0.25"
     inkscape:showpageshadow="2"
     inkscape:pageopacity="0.0"
     inkscape:pagecheckerboard="0"
     inkscape:deskcolor="#d1d1d1"
     inkscape:document-units="mm"
     inkscape:zoom="5.6501246"
     inkscape:cx="173.18202"
     inkscape:cy="118.66995"
     inkscape:window-width="3840"
     inkscape:window-height="2065"
     inkscape:window-x="0"
     inkscape:window-y="38"
     inkscape:window-maximized="0"
     inkscape:current-layer="layer1" /><defs
     id="defs1" /><g
     inkscape:label="Layer 1"
     inkscape:groupmode="layer"
     id="layer1"><path
       style="display:inline;fill:#ffffff;fill-opacity:1;fill-rule:evenodd;stroke:#000000;stroke-width:2.24306;stroke-linecap:round;stroke-linejoin:round;stroke-dasharray:none;stroke-opacity:1"
       d="m 76.266127,32.203519 v 0 c 5.457522,-11.131258 3.740191,-13.926895 3.25261,-18.962283 -4.676767,4.895785 -9.95219,9.242894 -15.970584,12.909061 4.023982,1.140388 8.047425,2.278581 12.717974,6.053222 z"
       id="path7-7-6"
       sodipodi:nodetypes="ccccc" /><path
       style="display:inline;fill:#ffffff;fill-opacity:1;fill-rule:evenodd;stroke:#000000;stroke-width:2.24306;stroke-linecap:round;stroke-linejoin:round;stroke-dasharray:none;stroke-opacity:1"
       d="m 22.957632,32.203519 v 0 C 17.50011,21.072261 19.217441,18.276624 19.705022,13.241236 c 4.676767,4.895785 9.95219,9.242894 15.970584,12.909061 -4.023982,1.140388 -8.047425,2.278581 -12.717974,6.053222 z"
       id="path7-7-6-7"
       sodipodi:nodetypes="ccccc" /><path
       style="fill:#ffffff;fill-rule:evenodd;stroke:#000000;stroke-width:2.11667;stroke-linecap:round;stroke-linejoin:round;stroke-dasharray:none;fill-opacity:1"
       d="m 27.986556,82.02678 v 4.293857 0 c 0,2.74538 -2.21359,4.97725 -4.958873,4.99983 l 53.944632,-0.0323 c -2.745283,-0.0226 -4.958874,-2.25445 -4.958874,-4.99983 l 10e-7,-0.01813 V 81.99078"
       id="path23"
       sodipodi:nodetypes="cccccccc" /><path
       id="rect5-2-0"
       style="display:inline;fill:#ffffff;fill-rule:evenodd;stroke:#000000;stroke-width:2.11666667;stroke-linecap:round;stroke-linejoin:round;stroke-dasharray:none;fill-opacity:1"
       inkscape:label="base.bottom"
       d="m 24.676761,91.482405 -3.111718,-0.03424 v 7.493599 h 56.869914 v -7.493599 l -53.758196,0.03424"
       sodipodi:nodetypes="cccccc" /><path
       id="rect1"
       style="fill:#ffffff;fill-rule:evenodd;stroke:#000000;stroke-width:2.11666667;stroke-linecap:round;stroke-linejoin:round;stroke-dasharray:none;fill-opacity:1"
       d="m 27.986556,45.576306 h 44.026888 v 36.19836 H 27.986556 Z" /><g
       id="g3"
       style="display:inline;stroke-width:2.12033658;stroke-dasharray:none;fill:#ffffff;fill-opacity:1"
       transform="matrix(0.99648845,0,0,1.0000531,0.1755785,4.4226664)"><path
         style="fill:#ffffff;fill-rule:evenodd;stroke:#000000;stroke-width:2.12034;stroke-linecap:round;stroke-linejoin:round;stroke-dasharray:none;fill-opacity:1"
         d="m 21.439471,32.992972 6.296202,7.98517 v 0 l 44.528654,0 6.2962,-7.942262 z"
         id="path2"
         sodipodi:nodetypes="cccccc" /></g><g
       id="g20"
       style="stroke-width:2.11666667;stroke-dasharray:none;fill:#ffffff;fill-opacity:1" /><g
       id="g14"
       transform="matrix(1.0031432,0,0,0.89222241,-0.15841548,8.8705645)"
       style="fill:#ffffff;fill-opacity:1;stroke-width:2.11667;stroke-dasharray:none"><path
         style="fill:#ffffff;fill-opacity:1;fill-rule:evenodd;stroke:#000000;stroke-width:2.11667;stroke-linecap:round;stroke-linejoin:round;stroke-dasharray:none"
         d="m 68.163447,72.004669 v 9.769997"
         id="path5-6-0" /><path
         style="fill:#ffffff;fill-opacity:1;fill-rule:evenodd;stroke:#000000;stroke-width:2.11667;stroke-linecap:round;stroke-linejoin:round;stroke-dasharray:none"
         d="m 31.839053,72.004669 v 9.769997"
         id="path5-3-2-9" /><path
         style="fill:#ffffff;fill-opacity:1;fill-rule:evenodd;stroke:#000000;stroke-width:2.11667;stroke-linecap:round;stroke-linejoin:round;stroke-dasharray:none"
         d="m 50.00125,72.004669 v 9.769997"
         id="path5-1" /></g><g
       id="g13"
       transform="matrix(1.0072719,0,0,0.87368038,-0.38217942,8.8596105)"
       style="fill:#ffffff;fill-opacity:1;stroke-width:2.14049421;stroke-dasharray:none"><path
         style="fill:#ffffff;fill-opacity:1;fill-rule:evenodd;stroke:#000000;stroke-width:2.14049421;stroke-linecap:round;stroke-linejoin:round;stroke-dasharray:none"
         d="M 40.93735,59.854053 V 69.62405"
         id="path5-3-2-9-5" /><path
         style="fill:#ffffff;fill-opacity:1;fill-rule:evenodd;stroke:#000000;stroke-width:2.14049421;stroke-linecap:round;stroke-linejoin:round;stroke-dasharray:none"
         d="M 59.099547,59.854053 V 69.62405"
         id="path5-1-5" /></g><g
       id="g15"
       transform="matrix(1.0023103,0,0,0.92016326,-0.116768,4.6492981)"
       style="fill:#ffffff;fill-opacity:1;stroke-width:2.117;stroke-dasharray:none"><path
         style="fill:#ffffff;fill-opacity:1;fill-rule:evenodd;stroke:#000000;stroke-width:2.117;stroke-linecap:round;stroke-linejoin:round;stroke-dasharray:none"
         d="m 68.163447,47.939494 v 9.769997"
         id="path5-6-0-6" /><path
         style="fill:#ffffff;fill-opacity:1;fill-rule:evenodd;stroke:#000000;stroke-width:2.117;stroke-linecap:round;stroke-linejoin:round;stroke-dasharray:none"
         d="m 31.839053,47.939494 v 9.769997"
         id="path5-3-2-9-3" /><path
         style="fill:#ffffff;fill-opacity:1;fill-rule:evenodd;stroke:#000000;stroke-width:2.117;stroke-linecap:round;stroke-linejoin:round;stroke-dasharray:none"
         d="m 50.00125,47.939494 v 9.769997"
         id="path5-1-2" /></g><path
       id="path1"
       style="fill:#ffffff;fill-rule:evenodd;stroke:#000000;stroke-width:2.117;stroke-linecap:round;stroke-linejoin:round;stroke-dasharray:none;fill-opacity:1"
       d="M 78.460237,37.460303 A 28.460316,12.860698 0 0 0 50.047402,24.599623 28.460316,12.860698 0 0 0 21.539763,37.417392 Z" /><path
       style="display:inline;fill:#000000;fill-opacity:1;fill-rule:evenodd;stroke:none;stroke-width:1.17414;stroke-linecap:round;stroke-linejoin:round;stroke-opacity:0.611809"
       d="m 75.30417,27.834568 c 1.054215,0.08717 3.278897,-8.781604 2.683211,-8.790115 -1.274388,3.088282 -4.792944,4.974155 -4.756284,5.799535 0.05457,1.163416 1.32014,2.972807 2.073073,2.99058 z"
       id="path8"
       sodipodi:nodetypes="cccc" /><path
       style="display:inline;fill:#000000;fill-opacity:1;fill-rule:evenodd;stroke:none;stroke-width:1.17414;stroke-linecap:round;stroke-linejoin:round;stroke-opacity:0.611809"
       d="M 79.518737,13.241237 62.42672,25.868961 c 0,0 4.391567,1.658376 5.745124,1.693473 1.955474,0.08753 11.346893,-14.321197 11.346893,-14.321197 z"
       id="path9-3"
       sodipodi:nodetypes="cccc" /><path
       style="display:inline;fill:#000000;fill-opacity:1;fill-rule:evenodd;stroke:none;stroke-width:1.17414;stroke-linecap:round;stroke-linejoin:round;stroke-opacity:0.611809"
       d="m 23.919589,27.834568 c -1.054215,0.08717 -3.278897,-8.781604 -2.683211,-8.790115 1.274388,3.088282 4.792944,4.974155 4.756284,5.799535 -0.05457,1.163416 -1.32014,2.972807 -2.073073,2.99058 z"
       id="path8-1"
       sodipodi:nodetypes="cccc" /><path
       style="display:inline;fill:#000000;fill-opacity:1;fill-rule:evenodd;stroke:none;stroke-width:1.17414;stroke-linecap:round;stroke-linejoin:round;stroke-opacity:0.611809"
       d="m 19.705022,13.241237 17.092017,12.627724 c 0,0 -4.391567,1.658376 -5.745124,1.693473 -1.955474,0.08753 -11.346893,-14.321197 -11.346893,-14.321197 z"
       id="path9-3-2"
       sodipodi:nodetypes="cccc" /><path
       style="fill:none;fill-rule:evenodd;stroke:#000000;stroke-width:2.117;stroke-linecap:round;stroke-linejoin:round;stroke-dasharray:none;stroke-opacity:1"
       d="m 72.013444,61.773327 -3.809033,-4.063836 v 0 l -4.551103,4.902425 v 0 l -4.551102,-4.902425 v 0 l -4.551103,4.902425 v 0 L 50,57.709491 v 0 l -4.551103,4.902425 v 0 l -4.551103,-4.902425 v 0 l -4.551105,4.902425 v 0 l -4.551102,-4.902425 v 0 l -3.795917,4.088943"
       id="path3-5-9"
       sodipodi:nodetypes="cccccccccccccccccccc" /><path
       style="fill:none;fill-rule:evenodd;stroke:#000000;stroke-width:2.117;stroke-linecap:round;stroke-linejoin:round;stroke-dasharray:none;stroke-opacity:1"
       d="M 71.968513,73.752613 68.15948,69.688777 v 0 l -4.551103,4.902425 v 0 l -4.551102,-4.902425 v 0 l -4.551103,4.902425 v 0 l -4.551103,-4.902425 v 0 l -4.551103,4.902425 v 0 l -4.551103,-4.902425 v 0 l -4.551105,4.902425 v 0 l -4.551102,-4.902425 v 0 l -3.795917,4.088943"
       id="path3-5-9-6"
       sodipodi:nodetypes="cccccccccccccccccccc" /><path
       style="fill:#000000;fill-opacity:1;fill-rule:evenodd;stroke:#000000;stroke-width:2.117;stroke-linecap:round;stroke-linejoin:round;stroke-dasharray:none;stroke-opacity:1"
       d="m 72.013446,49.640142 -3.80903,-4.063836 v 0 l -4.55111,4.902425 v 0 l -4.5511,-4.902425 v 0 l -4.5511,4.902425 v 0 l -4.55111,-4.902425 v 0 l -4.5511,4.902425 v 0 l -4.551102,-4.902425 v 0 l -4.551105,4.902425 v 0 l -4.551102,-4.902425 v 0 l -3.795917,4.088943 -10e-7,-1e-6 -0.185814,-4.088942 h 44.372291 z"
       id="path3-5-9-9-5"
       sodipodi:nodetypes="ccccccccccccccccccccccccc" /></g></svg>
