<?xml version="1.0" encoding="UTF-8" standalone="no"?>
<!-- Created with Inkscape (http://www.inkscape.org/) -->

<svg
   width="100mm"
   height="100mm"
   viewBox="0 0 100 100"
   version="1.1"
   id="svg1"
   xml:space="preserve"
   inkscape:version="1.3.2 (091e20ef0f, 2023-11-25)"
   sodipodi:docname="panda-bishop-black.svg"
   xmlns:inkscape="http://www.inkscape.org/namespaces/inkscape"
   xmlns:sodipodi="http://sodipodi.sourceforge.net/DTD/sodipodi-0.dtd"
   xmlns="http://www.w3.org/2000/svg"
   xmlns:svg="http://www.w3.org/2000/svg"><sodipodi:namedview
     id="namedview1"
     pagecolor="#ffffff"
     bordercolor="#000000"
     borderopacity="0.25"
     inkscape:showpageshadow="2"
     inkscape:pageopacity="0.0"
     inkscape:pagecheckerboard="0"
     inkscape:deskcolor="#d1d1d1"
     inkscape:document-units="mm"
     showguides="true"
     inkscape:zoom="0.62451649"
     inkscape:cx="81.663175"
     inkscape:cy="469.96357"
     inkscape:window-width="956"
     inkscape:window-height="1044"
     inkscape:window-x="1920"
     inkscape:window-y="16"
     inkscape:window-maximized="0"
     inkscape:current-layer="layer1" /><defs
     id="defs1"><inkscape:path-effect
       effect="bend_path"
       id="path-effect14"
       is_visible="true"
       lpeversion="1"
       bendpath="m 85.854298,12.17437 36.485772,0"
       prop_scale="1"
       scale_y_rel="false"
       vertical="false"
       hide_knot="false"
       bendpath-nodetypes="cc" /><inkscape:path-effect
       effect="interpolate"
       id="path-effect13"
       is_visible="false"
       lpeversion="1"
       trajectory="#path1"
       equidistant_spacing="false"
       steps="2" /><inkscape:perspective
       sodipodi:type="inkscape:persp3d"
       inkscape:vp_x="-5.3830137 : 34.463393 : 1"
       inkscape:vp_y="0 : 1000 : 0"
       inkscape:vp_z="94.616986 : 34.463393 : 1"
       inkscape:persp3d-origin="44.616986 : 17.796726 : 1"
       id="perspective4" /><inkscape:path-effect
       effect="bend_path"
       id="path-effect14-6"
       is_visible="true"
       lpeversion="1"
       bendpath="M 82.129426,12.17437 H 126.72264"
       prop_scale="1"
       scale_y_rel="false"
       vertical="false"
       hide_knot="false" /><inkscape:path-effect
       effect="bend_path"
       id="path-effect14-2"
       is_visible="true"
       lpeversion="1"
       bendpath="M 91.088613,12.049868 117.55452,12.17437"
       prop_scale="1"
       scale_y_rel="false"
       vertical="false"
       hide_knot="false"
       bendpath-nodetypes="cc" /><inkscape:path-effect
       effect="bend_path"
       id="path-effect14-5"
       is_visible="true"
       lpeversion="1"
       bendpath="m 107.94128,12.17437 5.59983,0.0589"
       prop_scale="1"
       scale_y_rel="false"
       vertical="false"
       hide_knot="false"
       bendpath-nodetypes="cc" /><inkscape:path-effect
       effect="bend_path"
       id="path-effect14-3"
       is_visible="true"
       lpeversion="1"
       bendpath="M 95.428601,12.17437 H 112.74397"
       prop_scale="1"
       scale_y_rel="false"
       vertical="false"
       hide_knot="false"
       bendpath-nodetypes="cc" /></defs><g
     inkscape:label="Layer 1"
     inkscape:groupmode="layer"
     id="layer1"
     style="display:inline"><path
       style="fill:#000000;fill-opacity:1;fill-rule:evenodd;stroke:#000000;stroke-width:3.79766;stroke-linecap:round;stroke-linejoin:round;stroke-dasharray:none;stroke-opacity:1"
       d="m 27.117847,37.188065 c -5.779121,-2.295264 -9.991096,-5.414315 -7.421218,-12.098322 3.049406,-6.089322 7.850454,-6.566546 14.545286,-0.976271 -3.085921,3.673289 -5.761853,7.740148 -7.122738,13.06937"
       id="path12-0"
       sodipodi:nodetypes="cccc" /><path
       style="display:inline;fill:#ffffff;fill-opacity:1;fill-rule:evenodd;stroke:none;stroke-width:3.79766;stroke-linecap:round;stroke-linejoin:round;stroke-dasharray:none;stroke-opacity:1"
       d="m 24.518611,27.384386 c 1.155058,-2.306503 2.973584,-2.487268 5.509426,-0.369798 3.363431,2.401894 3.349334,2.425341 3.363431,2.401894 l -2.702438,4.775256 c 0,0 -0.01128,0.01715 -3.614042,-1.591374 -2.188992,-0.869395 -3.529869,-2.68418 -2.556326,-5.216011 z"
       id="path12-3-6"
       sodipodi:nodetypes="ccccccc" /><path
       style="display:inline;fill:#000000;fill-opacity:1;fill-rule:evenodd;stroke:#000000;stroke-width:3.79766;stroke-linecap:round;stroke-linejoin:round;stroke-dasharray:none;stroke-opacity:1"
       d="m 72.882153,37.188065 c 5.779121,-2.295264 9.991096,-5.414315 7.421218,-12.098322 -3.049406,-6.089322 -7.850454,-6.566546 -14.545286,-0.976271 3.085921,3.673289 5.761853,7.740148 7.122738,13.06937"
       id="path12-0-9"
       sodipodi:nodetypes="cccc" /><path
       style="display:inline;fill:#ffffff;fill-opacity:1;fill-rule:evenodd;stroke:none;stroke-width:3.79766;stroke-linecap:round;stroke-linejoin:round;stroke-dasharray:none;stroke-opacity:1"
       d="m 75.481389,27.384386 c -1.155058,-2.306503 -2.973584,-2.487268 -5.509426,-0.369798 -3.363431,2.401894 -3.349334,2.425341 -3.363431,2.401894 l 2.702438,4.775256 c 0,0 0.01128,0.01715 3.614042,-1.591374 2.188992,-0.869395 3.529869,-2.68418 2.556326,-5.216011 z"
       id="path12-3-6-2"
       sodipodi:nodetypes="ccccccc" /><path
       style="display:inline;fill:#ffffff;fill-opacity:1;fill-rule:evenodd;stroke:none;stroke-width:3.79766;stroke-linecap:round;stroke-linejoin:round;stroke-dasharray:none;stroke-opacity:1"
       d="m 58.505968,35.45239 c 1.155058,-2.306503 2.973584,-2.487268 5.509426,-0.369798 2.905641,2.010062 2.119024,1.454922 3.363431,2.401894 1.429293,1.087666 -1.689081,4.727454 -2.49323,4.382388 -1.850027,-0.79386 -2.207974,-1.130097 -3.620858,-1.852886 -2.188992,-0.869395 -3.732261,-2.0298 -2.758718,-4.561631 z"
       id="path12-3-6-7"
       sodipodi:nodetypes="ccssccc" /><path
       style="display:inline;fill:#ffffff;fill-opacity:1;fill-rule:evenodd;stroke:#000000;stroke-width:1.18886;stroke-linecap:round;stroke-linejoin:round;stroke-dasharray:none"
       d="M 50,7.4231629 V 80.964764"
       id="path5"
       inkscape:label="middle"
       sodipodi:nodetypes="cc" /><path
       style="display:inline;fill:#000000;fill-opacity:1;fill-rule:evenodd;stroke:#ffffff;stroke-width:1.70453;stroke-linecap:round;stroke-linejoin:round;stroke-dasharray:none;stroke-opacity:1"
       d="M 32.983202,71.541512 C 24.652666,65.522793 25.206295,53.039733 25.562905,48.770253 27.001916,31.541824 47.692232,11.785864 47.692232,11.785864 c 0,0 20.690315,19.75596 22.129326,36.984389 0.35661,4.26948 0.910239,16.75254 -7.420297,22.771259"
       id="path1"
       sodipodi:nodetypes="cscsc"
       inkscape:label="bishop.outdoor"
       transform="matrix(1.1873296,0,0,1.2987536,-6.6263981,-7.8796789)" /><g
       id="g10"
       inkscape:label="bishop"
       transform="matrix(1.1880368,0,0,1.2938506,-9.4168639,-7.353398)"
       style="display:inline;fill:#000000;fill-opacity:1;stroke:#ffffff;stroke-width:1.70724;stroke-dasharray:none;stroke-opacity:1"><g
         id="g8"
         inkscape:label="bishop.indoor"
         transform="translate(2.3077685)"
         style="display:inline;fill:#000000;fill-opacity:1;stroke:#ffffff;stroke-width:1.70724;stroke-dasharray:none;stroke-opacity:1"><path
           style="fill:#000000;fill-opacity:1;fill-rule:evenodd;stroke:#ffffff;stroke-width:1.70724;stroke-linecap:round;stroke-linejoin:round;stroke-dasharray:none;stroke-opacity:1"
           d="m 52.04051,16.340377 v 46.405772 l 15.803352,0"
           id="path2-9"
           sodipodi:nodetypes="ccc"
           inkscape:label="bishop.indoor.right" /><path
           style="fill:#000000;fill-opacity:1;fill-rule:evenodd;stroke:#ffffff;stroke-width:1.70724;stroke-linecap:round;stroke-linejoin:round;stroke-dasharray:none;stroke-opacity:1"
           d="m 43.369245,16.340377 v 46.405772 l -15.759761,0"
           id="path2-9-3"
           sodipodi:nodetypes="ccc"
           inkscape:label="bishop.indoor.left" /></g></g><g
       id="g20"
       inkscape:label="base"
       transform="matrix(0.9985506,0,0,1.0000178,0.88915308,12.832494)"
       style="fill:#000000;fill-opacity:1;stroke-width:2.11818;stroke-dasharray:none;stroke:#ffffff;stroke-opacity:1"><rect
         style="display:inline;fill:#000000;fill-opacity:1;fill-rule:evenodd;stroke:#ffffff;stroke-width:2.11818;stroke-linecap:round;stroke-linejoin:round;stroke-dasharray:none;stroke-opacity:1"
         id="rect5-2"
         width="56.869789"
         height="7.4933448"
         x="20.747236"
         y="78.627457"
         inkscape:label="base.bottom" /><path
         id="path7"
         style="display:inline;fill:#000000;fill-opacity:1;fill-rule:evenodd;stroke:#ffffff;stroke-width:2.11818;stroke-linecap:round;stroke-linejoin:round;stroke-dasharray:none;stroke-opacity:1"
         d="m 20.747236,78.627457 c 18.774713,-12.627985 35.402669,-13.710675 56.869791,0"
         sodipodi:nodetypes="cc"
         inkscape:label="base.top" /></g><g
       id="g21"
       inkscape:label="arrowslit"
       transform="matrix(1.1897897,0,0,1.1881509,-9.1693254,0.26204802)"
       style="fill:none;fill-opacity:1;stroke-width:0.999908;stroke-dasharray:none;stroke:#ffffff;stroke-opacity:1"><g
         id="g18-9"
         transform="matrix(-1,0,0,1,99.461808,0.50000026)"
         inkscape:label="arrowslit.right"
         style="display:inline;fill:none;fill-opacity:1;stroke-width:0.999908;stroke-dasharray:none;stroke:#ffffff;stroke-opacity:1"><path
           style="display:inline;fill:none;fill-opacity:1;fill-rule:evenodd;stroke:#ffffff;stroke-width:0.999908;stroke-linecap:round;stroke-linejoin:round;stroke-dasharray:none;stroke-opacity:1"
           d="m 38.978472,36.314763 c -0.819445,2.916514 -1.225794,4.577028 -1.794474,7.370474"
           id="path3-2-9-2"
           sodipodi:nodetypes="cc" /><path
           style="display:inline;fill:none;fill-opacity:1;fill-rule:evenodd;stroke:#ffffff;stroke-width:0.999908;stroke-linecap:round;stroke-linejoin:round;stroke-dasharray:none;stroke-opacity:1"
           d="m 41.336869,45.314675 c -0.196703,2.895078 -0.254895,4.736269 -0.282515,7.370651"
           id="path3-2-9-5-6"
           sodipodi:nodetypes="cc" /><path
           style="display:inline;fill:none;fill-opacity:1;fill-rule:evenodd;stroke:#ffffff;stroke-width:0.999908;stroke-linecap:round;stroke-linejoin:round;stroke-dasharray:none;stroke-opacity:1"
           d="m 32.021773,45.316013 c -0.448581,2.523904 -0.60618,4.630115 -0.583571,7.367974"
           id="path3-2-3-64"
           sodipodi:nodetypes="cc" /></g><g
         id="g18"
         style="display:inline;fill:none;fill-opacity:1;stroke-width:0.999908;stroke-dasharray:none;stroke:#ffffff;stroke-opacity:1"
         inkscape:label="arrowslit.left"><path
           style="display:inline;fill:none;fill-opacity:1;fill-rule:evenodd;stroke:#ffffff;stroke-width:0.999908;stroke-linecap:round;stroke-linejoin:round;stroke-dasharray:none;stroke-opacity:1"
           d="m 38.978472,36.314763 c -0.819445,2.916514 -1.225794,4.577028 -1.794474,7.370474"
           id="path3-2-9"
           sodipodi:nodetypes="cc" /><path
           style="display:inline;fill:none;fill-opacity:1;fill-rule:evenodd;stroke:#ffffff;stroke-width:0.999908;stroke-linecap:round;stroke-linejoin:round;stroke-dasharray:none;stroke-opacity:1"
           d="m 41.336869,45.314675 c -0.196703,2.895078 -0.254895,4.736269 -0.282515,7.370651"
           id="path3-2-9-5"
           sodipodi:nodetypes="cc" /><path
           style="display:inline;fill:none;fill-opacity:1;fill-rule:evenodd;stroke:#ffffff;stroke-width:0.999908;stroke-linecap:round;stroke-linejoin:round;stroke-dasharray:none;stroke-opacity:1"
           d="m 32.021773,45.316013 c -0.448581,2.523904 -0.60618,4.630115 -0.583571,7.367974"
           id="path3-2-3"
           sodipodi:nodetypes="cc" /></g></g></g></svg>
