<?xml version="1.0" encoding="UTF-8" standalone="no"?>
<!-- Created with Inkscape (http://www.inkscape.org/) -->

<svg
   width="100mm"
   height="100mm"
   viewBox="0 0 100 100"
   version="1.1"
   id="svg1"
   xml:space="preserve"
   sodipodi:docname="panda-king-white.svg"
   inkscape:version="1.3.2 (091e20ef0f, 2023-11-25)"
   xmlns:inkscape="http://www.inkscape.org/namespaces/inkscape"
   xmlns:sodipodi="http://sodipodi.sourceforge.net/DTD/sodipodi-0.dtd"
   xmlns="http://www.w3.org/2000/svg"
   xmlns:svg="http://www.w3.org/2000/svg"><sodipodi:namedview
     id="namedview1"
     pagecolor="#ffffff"
     bordercolor="#000000"
     borderopacity="0.25"
     inkscape:showpageshadow="2"
     inkscape:pageopacity="0.0"
     inkscape:pagecheckerboard="0"
     inkscape:deskcolor="#d1d1d1"
     inkscape:document-units="mm"
     inkscape:zoom="2.6047936"
     inkscape:cx="203.66297"
     inkscape:cy="61.617165"
     inkscape:window-width="1276"
     inkscape:window-height="1044"
     inkscape:window-x="1280"
     inkscape:window-y="16"
     inkscape:window-maximized="1"
     inkscape:current-layer="g2-0"
     showgrid="false" /><defs
     id="defs1" /><g
     inkscape:label="Layer 1"
     inkscape:groupmode="layer"
     id="layer1"><path
       style="fill:#ffffff;fill-opacity:1;fill-rule:evenodd;stroke:#000000;stroke-width:2.117;stroke-linecap:round;stroke-linejoin:round;stroke-dasharray:none;stroke-opacity:1"
       d="m 39.780867,22.065454 c -0.01045,-1.711849 -1.449089,-4.276512 -2.141526,-5.272069 -3.217817,-3.505138 -6.621873,-4.236115 -9.724939,-1.709333 -3.492792,2.671319 -3.504812,5.617631 -3.068786,8.289327 0.424741,2.08864 3.303292,5.423149 5.867385,6.607261 2.197478,1.014808 3.308251,4.184851 2.902116,6.808506 v 0 h 32.769767 c -0.406135,-2.623655 0.704638,-5.793698 2.902116,-6.808506 2.564093,-1.184112 5.442644,-4.518621 5.867385,-6.607261 0.436027,-2.671696 0.424002,-5.618008 -3.068786,-8.289327 -3.103066,-2.526782 -6.507122,-1.795805 -9.724939,1.709333 -0.692437,0.995557 -2.131078,3.56022 -2.141526,5.272069"
       id="path12-3-7-1-7"
       sodipodi:nodetypes="ccccscccscccc" /><path
       style="fill:#ffffff;fill-opacity:1;stroke:#000000;stroke-width:1;stroke-linecap:round;stroke-linejoin:round;stroke-dasharray:none;stroke-opacity:1"
       d="m 51.821019,12.312409 0.0027,-2.387201 4.024118,0.0067 -0.117989,-0.021532 c 0.926043,-0.016217 1.667618,-0.8319094 1.663259,-1.8294937 -0.0044,-0.9975846 -0.75303,-1.8057216 -1.679174,-1.8125487 l 0.133904,-0.019955 -4.024118,0.00672 -0.0027,-4.0436787 2e-6,1e-7 C 51.814221,1.2852759 51.006057,0.53660495 50.008472,0.53224595 49.010888,0.52788695 48.195199,1.2694624 48.178979,2.1955053 l -2e-6,-1e-7 -0.0027,4.0436787 -4.024118,-0.00672 0.133904,0.019956 c -0.926144,0.00683 -1.674774,0.8149641 -1.679174,1.8125486 -0.0044,0.9975848 0.737217,1.8132769 1.66326,1.8294932 l -0.11799,0.021552 4.024118,-0.00672 0.0027,2.4631893"
       id="path1-9-9"
       sodipodi:nodetypes="ccccscccccscccccscccc" /><path
       style="display:none;fill:none;fill-rule:evenodd;stroke:#000000;stroke-width:2;stroke-linecap:round;stroke-linejoin:round;stroke-dasharray:none"
       d="m 45.905147,25.754029 c -3.239648,-4.505797 -3.589898,-6.82782 -2.069482,-7.736017 4.69923,3.839201 8.743087,2.738362 12.366495,-0.0316 1.672776,1.260233 0.689563,4.053516 -1.813373,7.723993"
       id="path3"
       sodipodi:nodetypes="cccc" /><path
       id="rect5-2-0"
       style="display:inline;fill:#ffffff;fill-rule:evenodd;stroke:#000000;stroke-width:2.117;stroke-linecap:round;stroke-linejoin:round;stroke-dasharray:none;fill-opacity:1"
       inkscape:label="base.bottom"
       d="m 24.676761,91.482306 -3.111718,-0.03424 v 7.493599 h 56.869914 v -7.493599 l -53.758196,0.03424"
       sodipodi:nodetypes="cccccc" /><path
       id="rect5-2-0-2"
       style="display:inline;fill:#ffffff;fill-rule:evenodd;stroke:#000000;stroke-width:2.117;stroke-linecap:round;stroke-linejoin:round;stroke-dasharray:none;fill-opacity:1"
       inkscape:label="base.bottom"
       d="m 32.449093,36.798886 -2.141362,-0.01948 v 4.263386 h 39.135663 v -4.263386 l -36.994301,0.01948"
       sodipodi:nodetypes="cccccc" /><g
       id="g8"
       transform="matrix(-1,0,0,1,99.751125,0)"
       style="fill:#ffffff;fill-opacity:1"><path
         id="rect5-2-0-7"
         style="display:inline;fill:#ffffff;fill-rule:evenodd;stroke:#000000;stroke-width:2.117;stroke-linecap:round;stroke-linejoin:round;stroke-dasharray:none;fill-opacity:1"
         inkscape:label="base.bottom"
         d="M 69.578858,80.0235 72,79.98825 V 87.704 H 27.751125 v -7.71575 l 41.827733,0.03525"
         sodipodi:nodetypes="cccccc" /><g
         id="g7"
         style="fill:#ffffff;fill-opacity:1"><path
           style="fill:#ffffff;fill-rule:evenodd;stroke:#000000;stroke-width:2.117;stroke-linecap:round;stroke-linejoin:round;stroke-dasharray:none;fill-opacity:1"
           d="m 22.82282,91.449026 c 1.443587,-2.994138 2.482074,-3.62571 3.213729,-3.734076 L 72,87.704 l 1.714576,0.01095 c 0.731655,0.108366 1.770142,0.739938 3.213729,3.734076"
           id="path5-2-6-6-9"
           sodipodi:nodetypes="ccccc" /></g></g><g
       id="g1"
       style="fill:#ffffff;fill-opacity:1"><path
         style="fill:#ffffff;fill-rule:evenodd;stroke:#000000;stroke-width:2.00347;stroke-linecap:round;stroke-linejoin:round;stroke-dasharray:none;fill-opacity:1"
         d="m 32.904382,49.426192 v 23.033003 c 0,0 0.148764,5.381883 -5.233182,7.449915 l 44.385565,-0.05676 C 66.674819,77.784313 66.823583,72.40243 66.823583,72.40243 V 49.369427 Z"
         id="path8"
         sodipodi:nodetypes="ccccccc" /></g><path
       style="fill:#ffffff;fill-rule:evenodd;stroke:#000000;stroke-width:2.117;stroke-linecap:round;stroke-linejoin:round;stroke-dasharray:none;fill-opacity:1"
       d="M 27.751125,49.426192 H 72"
       id="path9"
       sodipodi:nodetypes="cc" /><path
       style="fill:#ffffff;fill-rule:evenodd;stroke:#000000;stroke-width:2.117;stroke-linecap:round;stroke-linejoin:round;stroke-dasharray:none;fill-opacity:1"
       d="m 69.427924,41.01624 c 0,0 -4e-6,2.885065 2.558516,4.889847 L 72,49.426192 H 27.751125 l 0.01356,-3.520105 c 2.55852,-2.004782 2.558516,-4.889847 2.558516,-4.889847 z"
       id="path10-2"
       sodipodi:nodetypes="ccccccc" /><path
       style="fill:#ffffff;fill-opacity:1;stroke:#000000;stroke-width:2.117;stroke-linecap:round;stroke-linejoin:round;stroke-dasharray:none;stroke-opacity:1"
       d="m 54.137654,31.226294 c 0,0 3.336796,-0.801885 3.444862,-14.109011 0,0 -6.728061,-11.3688827 -15.165038,0 0.08345,13.784175 3.444862,14.109011 3.444862,14.109011"
       id="path2"
       sodipodi:nodetypes="cccc" /><path
       style="fill:#000000;fill-opacity:1;fill-rule:evenodd;stroke:#000000;stroke-width:2.05736;stroke-linecap:round;stroke-linejoin:round;stroke-dasharray:none;stroke-opacity:1"
       d="m 66.667621,68.984015 c -11.107784,-7.733115 -22.341069,-8.058335 -33.716377,0 V 49.530881 l 33.848637,-0.209378 z"
       id="path6"
       sodipodi:nodetypes="cc" /><g
       id="g21-4-7-2"
       transform="matrix(1.5383801,-0.27246321,0.27246321,1.5383801,-43.286814,2.6485278)"
       style="display:inline"><g
         id="g2-0"
         transform="translate(-2.6444011,-2.5194204)"><path
           style="fill:#000000;fill-opacity:1;fill-rule:evenodd;stroke:#000000;stroke-width:2.117;stroke-linecap:round;stroke-linejoin:round;stroke-dasharray:none;stroke-opacity:1"
           d="m 45.281551,27.100236 c -2.033485,-2.807226 -3.083328,-5.533738 0.123557,-7.910959 3.254806,-1.954071 5.656634,-0.743788 7.136269,3.887625 -2.54993,0.806258 -5.024556,1.920246 -7.257639,4.021274"
           id="path12-4-6"
           sodipodi:nodetypes="cccc" /><path
           style="display:inline;fill:#ffffff;fill-opacity:1;fill-rule:evenodd;stroke:none;stroke-width:4.3267;stroke-linecap:round;stroke-linejoin:round;stroke-dasharray:none;stroke-opacity:1"
           d="m 46.706115,21.343473 c 2.519693,-1.512724 4.379046,-0.575798 5.524484,3.009564 -1.809054,0.836633 -3.703791,1.771776 -5.657547,3.062569 -1.574195,-2.173186 -2.349626,-4.231831 0.133132,-6.072133 z"
           id="path12-3-4-8"
           sodipodi:nodetypes="cccc" /><path
           style="display:inline;fill:#000000;fill-opacity:1;fill-rule:evenodd;stroke:#000000;stroke-width:2.117;stroke-linecap:round;stroke-linejoin:round;stroke-dasharray:none;stroke-opacity:1"
           d="m 71.749245,31.787941 c 2.873927,-1.938072 4.796324,-4.138169 2.600959,-7.472185 -2.385701,-2.953064 -5.057099,-2.641302 -8.037379,1.200213 2.117915,1.632983 4.059418,3.529113 5.435074,6.269287"
           id="path12-4-6-9"
           sodipodi:nodetypes="cccc" /><path
           style="display:inline;fill:#ffffff;fill-opacity:1;fill-rule:evenodd;stroke:none;stroke-width:4.3267;stroke-linecap:round;stroke-linejoin:round;stroke-dasharray:none;stroke-opacity:1"
           d="m 72.388481,25.892089 c -1.846883,-2.286091 -3.91492,-2.044747 -6.222067,0.929126 1.411673,1.407058 2.869984,2.936061 4.261577,4.81935 2.224815,-1.500342 3.660114,-3.167443 1.960425,-5.7485 z"
           id="path12-3-4-8-1"
           sodipodi:nodetypes="cccc" /></g></g></g></svg>
