<?xml version="1.0" encoding="UTF-8" standalone="no"?>
<!-- Created with Inkscape (http://www.inkscape.org/) -->

<svg
   width="100mm"
   height="100mm"
   viewBox="0 0 100 100"
   version="1.1"
   id="svg1"
   inkscape:version="1.3.2 (091e20ef0f, 2023-11-25)"
   sodipodi:docname="panda-knight-white.svg"
   xml:space="preserve"
   xmlns:inkscape="http://www.inkscape.org/namespaces/inkscape"
   xmlns:sodipodi="http://sodipodi.sourceforge.net/DTD/sodipodi-0.dtd"
   xmlns="http://www.w3.org/2000/svg"
   xmlns:svg="http://www.w3.org/2000/svg"><sodipodi:namedview
     id="namedview1"
     pagecolor="#ffffff"
     bordercolor="#000000"
     borderopacity="0.25"
     inkscape:showpageshadow="2"
     inkscape:pageopacity="0.0"
     inkscape:pagecheckerboard="0"
     inkscape:deskcolor="#d1d1d1"
     inkscape:document-units="mm"
     inkscape:zoom="1.0719645"
     inkscape:cx="135.26568"
     inkscape:cy="279.39358"
     inkscape:window-width="764"
     inkscape:window-height="1044"
     inkscape:window-x="768"
     inkscape:window-y="0"
     inkscape:window-maximized="0"
     inkscape:current-layer="layer1"
     showgrid="false" /><defs
     id="defs1" /><g
     inkscape:label="Layer 1"
     inkscape:groupmode="layer"
     id="layer1"><path
       style="fill:#ffffff;fill-opacity:1;stroke:#000000;stroke-width:2.34076;stroke-linecap:round;stroke-linejoin:round;stroke-dasharray:none;stroke-opacity:1"
       d="m 53.942997,39.956792 c -0.119307,1.033089 -3.025384,14.674305 -17.100209,14.100232 -1.622029,-0.03401 -10.339758,4.710993 -11.726951,-3.614382 -2.004539,-2.122508 -2.04502,-1.101042 -3.58408,-5.891133 0.804166,-1.325414 8.058442,-8.176648 8.058442,-8.176648 1.428724,-8.21986 7.64683,-11.482143 7.64683,-11.482143 l 5.101463,-2.820993 C 49.161346,19.617658 55.76786,21.535641 55.76786,21.535641"
       id="path12"
       sodipodi:nodetypes="cccccccc" /><path
       style="fill:#ffffff;fill-opacity:1;fill-rule:evenodd;stroke:#000000;stroke-width:2.117;stroke-linecap:round;stroke-linejoin:round;stroke-dasharray:none"
       d="m 53.847661,21.401761 c 21.214449,8.8403 26.716286,44.741548 18.574599,59.728437 l -42.917242,0.480596 c 2.381221,-7.775279 5.467706,-7.493746 10.058632,-12.239801 4.232116,-4.580705 4.298058,-9.758864 4.612605,-16.852965"
       id="path3"
       sodipodi:nodetypes="ccccc" /><path
       style="fill:#ffffff;fill-rule:evenodd;stroke:#000000;stroke-width:2.11122;stroke-linecap:round;stroke-linejoin:round;stroke-dasharray:none;fill-opacity:1"
       d="m 21.562979,91.374898 56.874069,-0.01008 c -6.64907,-5.178758 -2.911397,-9.921255 -8.968587,-10.04109 l -39.963443,0.20725 c -6.069292,0.05318 -1.660136,4.250399 -7.942039,9.843923 z"
       id="path4"
       sodipodi:nodetypes="ccccc" /><g
       id="g16"
       style="display:none"><path
         style="fill:none;fill-rule:evenodd;stroke:#000000;stroke-width:1;stroke-linecap:round;stroke-linejoin:round;stroke-dasharray:none"
         d="m 31.723451,27.427283 c 1.542882,-7.860379 9.253344,-11.70314 16.78128,-11.70314"
         id="path9"
         sodipodi:nodetypes="cc" /></g><rect
       style="display:inline;fill:#ffffff;fill-rule:evenodd;stroke:#000000;stroke-width:2.11667;stroke-linecap:round;stroke-linejoin:round;stroke-dasharray:none;fill-opacity:1"
       id="rect5-2"
       width="56.869789"
       height="7.4933448"
       x="21.565105"
       y="91.448318"
       inkscape:label="base.bottom" /><path
       style="fill:#ffffff;fill-opacity:1;stroke:#000000;stroke-width:2.34186;stroke-linecap:round;stroke-linejoin:round;stroke-dasharray:none;stroke-opacity:1"
       d="m 52.859598,28.08686 c 8.243619,-9.188191 -3.405156,-17.141591 -5.804048,-16.820792 -6.119275,1.048471 -0.818175,9.735439 -0.818175,9.735439"
       id="path6"
       sodipodi:nodetypes="ccc" /><path
       style="fill:#000000;fill-opacity:1;stroke:#000000;stroke-width:2.34186;stroke-linecap:square;stroke-linejoin:miter;stroke-dasharray:none;stroke-opacity:1"
       d="m 45.718686,11.696118 c -3.930249,1.346067 0.518689,9.305389 0.518689,9.305389 0.76728,0.424858 0.994019,0.887621 0.434677,2.128205 2.179123,0.784213 2.081027,1.0139 3.941099,2.314759 3.530589,-2.559856 -1.016388,-15.076553 -4.894465,-13.748353 z"
       id="path6-0"
       sodipodi:nodetypes="scccs" /><path
       style="fill:#000000;fill-opacity:1;stroke:#000000;stroke-width:2.34186;stroke-linecap:round;stroke-linejoin:round;stroke-dasharray:none;stroke-opacity:1"
       d="m 37.237029,24.892718 c 0,0 -3.877761,-4.193652 -1.980938,-9.63391 6.178002,2.939641 7.082401,6.812917 7.082401,6.812917 -1.951252,0.787147 -3.62488,1.743885 -5.101463,2.820993 z"
       id="path8"
       sodipodi:nodetypes="cccc" /><path
       style="fill:#000000;fill-opacity:1;stroke:#000000;stroke-width:1.17812;stroke-linecap:round;stroke-linejoin:round;stroke-opacity:1"
       d="m 33.065972,37.315114 c 3.242408,-0.308734 0.540401,-5.745596 3.915812,-6.318646 7.713652,-1.099321 10.732533,7.079659 10.210857,8.830933 -1.450192,4.360124 -4.289772,4.691227 -5.471266,4.920552 -3.171563,0.129209 -5.008775,-1.472961 -5.132507,-2.710857 0.258951,-5.364043 -3.522896,-4.721982 -3.522896,-4.721982 z"
       id="path1"
       sodipodi:nodetypes="cccccc" /><path
       style="fill:#ffffff;fill-opacity:1;stroke:none;stroke-width:1.17038;stroke-linecap:square;stroke-linejoin:miter;stroke-dasharray:none;stroke-opacity:0.746217"
       d="m 36.355335,16.504098 c 0,0 2.05312,1.214648 2.512447,2.248298 0.244567,0.425025 0.977994,1.703488 0.352799,3.300845 -0.02821,-2.045491 -1.365379,-3.814501 -2.865246,-5.549143 z"
       id="path10"
       sodipodi:nodetypes="cccc" /><path
       style="fill:none;fill-opacity:1;stroke:#000000;stroke-width:1.17038;stroke-linecap:butt;stroke-linejoin:bevel;stroke-dasharray:none;stroke-opacity:0.983268"
       d="m 25.115835,50.44264 c 4.326268,1.06448 7.961138,-0.273355 9.798076,-3.394972"
       id="path13"
       inkscape:transform-center-x="0.28011656"
       inkscape:transform-center-y="-0.93068414"
       sodipodi:nodetypes="cc" /><path
       style="fill:#000000;fill-opacity:1;stroke:#000000;stroke-width:1.17038;stroke-linecap:round;stroke-linejoin:round;stroke-dasharray:none;stroke-opacity:1"
       d="m 21.531757,44.551509 h 5.737602 c 0,0 -0.243834,3.342861 -4.781878,2.711051 z"
       id="path14"
       sodipodi:nodetypes="cccc" /><ellipse
       style="fill:#ffffff;fill-opacity:1;stroke:#ffffff;stroke-width:1.22079;stroke-linecap:round;stroke-linejoin:round;stroke-opacity:1"
       id="path2-9"
       cx="38.654694"
       cy="34.990612"
       rx="0.63528574"
       ry="1.3951838" /></g></svg>
